<?xml version="1.0" encoding="UTF-8" standalone="no"?>
<!-- Created with Inkscape (http://www.inkscape.org/) -->

<svg
   xmlns:dc="http://purl.org/dc/elements/1.1/"
   xmlns:cc="http://creativecommons.org/ns#"
   xmlns:rdf="http://www.w3.org/1999/02/22-rdf-syntax-ns#"
   xmlns:svg="http://www.w3.org/2000/svg"
   xmlns="http://www.w3.org/2000/svg"
   xmlns:sodipodi="http://sodipodi.sourceforge.net/DTD/sodipodi-0.dtd"
   xmlns:inkscape="http://www.inkscape.org/namespaces/inkscape"
   id="svg4584"
   version="1.1"
   inkscape:version="0.91 r13725"
   width="1340"
   height="658"
   viewBox="0 0 1340 658"
   sodipodi:docname="simDev.svg">
  <metadata
     id="metadata4590">
    <rdf:RDF>
      <cc:Work
         rdf:about="">
        <dc:format>image/svg+xml</dc:format>
        <dc:type
           rdf:resource="http://purl.org/dc/dcmitype/StillImage" />
        <dc:title></dc:title>
      </cc:Work>
    </rdf:RDF>
  </metadata>
  <defs
     id="defs4588" />
  <sodipodi:namedview
     pagecolor="#ffffff"
     bordercolor="#666666"
     borderopacity="1"
     objecttolerance="10"
     gridtolerance="10"
     guidetolerance="10"
     inkscape:pageopacity="0"
     inkscape:pageshadow="2"
     inkscape:window-width="1376"
     inkscape:window-height="818"
     id="namedview4586"
     showgrid="false"
     inkscape:zoom="0.32"
     inkscape:cx="543.3605"
     inkscape:cy="564.23798"
     inkscape:window-x="260"
     inkscape:window-y="0"
     inkscape:window-maximized="0"
     inkscape:current-layer="svg4584" />
  <text
     xml:space="preserve"
     style="font-style:normal;font-variant:normal;font-weight:normal;font-stretch:normal;font-size:139.02577209px;line-height:125%;font-family:'.DecoType Naskh PUA';-inkscape-font-specification:'.DecoType Naskh PUA';letter-spacing:0px;word-spacing:0px;fill:#000000;fill-opacity:1;stroke:none;stroke-width:1px;stroke-linecap:butt;stroke-linejoin:miter;stroke-opacity:1"
     x="349.14441"
     y="140.46672"
     id="text5307"
     sodipodi:linespacing="125%"
     transform="scale(0.85619355,1.1679602)"><tspan
       sodipodi:role="line"
       id="tspan5309"
       x="349.14441"
       y="140.46672">sim</tspan></text>
  <text
     xml:space="preserve"
     style="font-style:normal;font-variant:normal;font-weight:normal;font-stretch:normal;font-size:88.56057739px;line-height:125%;font-family:'.DecoType Naskh PUA';-inkscape-font-specification:'.DecoType Naskh PUA';letter-spacing:0px;word-spacing:0px;fill:#000000;fill-opacity:1;stroke:none;stroke-width:1px;stroke-linecap:butt;stroke-linejoin:miter;stroke-opacity:1"
     x="701.94305"
     y="278.29596"
     id="text5311"
     sodipodi:linespacing="125%"
     transform="scale(0.76804874,1.3020007)"><tspan
       sodipodi:role="line"
       id="tspan5313"
       x="701.94305"
       y="278.29596"
       style="font-style:normal;font-variant:normal;font-weight:normal;font-stretch:normal;font-size:398.52261353px;font-family:'Estrangelo Antioch';-inkscape-font-specification:'Estrangelo Antioch'">DEV</tspan></text>
  <text
     xml:space="preserve"
     style="font-style:normal;font-variant:normal;font-weight:normal;font-stretch:normal;font-size:73.99004364px;line-height:125%;font-family:'.DecoType Naskh PUA';-inkscape-font-specification:'.DecoType Naskh PUA';letter-spacing:0px;word-spacing:0px;fill:#cccccc;fill-opacity:1;stroke:none;stroke-width:1px;stroke-linecap:butt;stroke-linejoin:miter;stroke-opacity:1"
     x="36.713558"
     y="277.41742"
     id="text5315"
     sodipodi:linespacing="125%"
     transform="scale(0.79742152,1.2540419)"><tspan
       sodipodi:role="line"
       id="tspan5317"
       x="36.713558"
       y="277.41742"
       style="font-style:normal;font-variant:normal;font-weight:bold;font-stretch:normal;font-size:166.4776001px;font-family:'.Beirut PUA';-inkscape-font-specification:'.Beirut PUA Bold';fill:#cccccc">MEANS</tspan></text>
  <text
     xml:space="preserve"
     style="font-style:normal;font-variant:normal;font-weight:normal;font-stretch:normal;font-size:79.44329834px;line-height:125%;font-family:'.DecoType Naskh PUA';-inkscape-font-specification:'.DecoType Naskh PUA';letter-spacing:0px;word-spacing:0px;fill:#000000;fill-opacity:1;stroke:none;stroke-width:1px;stroke-linecap:butt;stroke-linejoin:miter;stroke-opacity:1"
     x="46.514954"
     y="405.1123"
     id="text5319"
     sodipodi:linespacing="125%"
     transform="scale(0.85619355,1.1679602)"><tspan
       sodipodi:role="line"
       id="tspan5321"
       x="46.514954"
       y="405.1123"
       style="font-style:normal;font-variant:normal;font-weight:normal;font-stretch:normal;font-size:119.16494751px;font-family:'.DecoType Naskh PUA';-inkscape-font-specification:'.DecoType Naskh PUA'">simple development</tspan></text>
</svg>
